﻿L Algoritmos e Estruturas de Dados
C Introducao
P 5
P 4
S Conceitos Basicos
P 3
P 5
P 4
P 7
P 5
P 6
S Linguagem Algoritmica
P 4
P 2
P 3
P 5
S Fontes de Consulta
P 5
P 6
P 4
P 5
P 3
P 6
C Estruturas Lineares
P 3
P 4
S Listas
P 3
P 4
P 6
P 4
P 5
SS Lista com Arranjo
P 6
P 7
P 5
P 6
P 8
SS Lista Encadeada
P 3
P 4
P 9
P 12
P 8
P 2
S Fila
P 5
P 4
P 3
S Pilha
P 5
P 3
P 6
C Arvores
P 4
P 5
S Arvore Generica
P 3
P 4
P 6
P 4
P 5
S Arvore Binaria
P 6
P 7
P 5
P 6
P 8
SS Arvore Binaria de Pesquisa
P 3
P 4
P 9
P 12
P 8
P 2
SS Arvore Binaria de Pequisa Balanceada
P 5
P 4
P 3
P 5
P 3
P 6
